<?xml version="1.0" standalone="no"?>
<!DOCTYPE svg PUBLIC "-//W3C//DTD SVG 20010904//EN"
 "http://www.w3.org/TR/2001/REC-SVG-20010904/DTD/svg10.dtd">
<svg version="1.0" xmlns="http://www.w3.org/2000/svg"
 width="640.000000pt" height="400.000000pt" viewBox="0 0 640.000000 400.000000"
 preserveAspectRatio="xMidYMid meet">
<metadata>
Created by potrace 1.15, written by Peter Selinger 2001-2017
</metadata>
<g transform="translate(0.000000,400.000000) scale(0.100000,-0.100000)"
fill="#000000" stroke="none">
<path d="M300 3830 c0 -5 -11 -10 -25 -10 -35 0 -102 -63 -110 -104 -3 -17
-11 -43 -17 -58 -17 -45 17 -152 65 -202 l39 -41 2925 0 c2332 0 2927 3 2931
13 2 6 8 12 14 12 11 0 47 42 66 78 19 37 25 122 13 168 -12 45 -59 113 -78
114 -7 0 -13 5 -13 10 0 6 -13 10 -30 10 -16 0 -30 5 -30 10 0 7 -965 10
-2875 10 -1910 0 -2875 -3 -2875 -10z"/>
<path d="M330 2210 c0 -5 -12 -10 -26 -10 -40 0 -102 -66 -110 -118 -4 -23
-11 -45 -15 -48 -12 -7 -12 -61 0 -68 4 -3 11 -24 14 -46 7 -51 71 -120 111
-120 14 0 26 -4 26 -10 0 -7 965 -10 2875 -10 1910 0 2875 3 2875 10 0 6 14
10 30 10 17 0 30 5 30 10 0 6 5 10 10 10 15 0 52 40 73 79 23 44 23 148 0 198
-19 41 -56 83 -73 83 -5 0 -10 5 -10 10 0 6 -13 10 -30 10 -16 0 -30 5 -30 10
0 7 -965 10 -2875 10 -1910 0 -2875 -3 -2875 -10z"/>
<path d="M323 563 c-18 -2 -33 -8 -33 -14 0 -5 -7 -9 -15 -9 -8 0 -15 -4 -15
-9 0 -5 -6 -16 -13 -23 -41 -43 -51 -73 -50 -158 0 -54 4 -85 12 -88 6 -2 11
-8 11 -13 0 -17 43 -69 57 -69 7 0 13 -4 13 -10 0 -5 14 -10 30 -10 17 0 30
-4 30 -10 0 -7 965 -10 2875 -10 1910 0 2875 3 2875 10 0 6 14 10 30 10 17 0
30 5 30 10 0 6 5 10 11 10 14 0 33 23 61 75 28 51 29 154 3 205 -26 52 -79 96
-122 104 -41 6 -5736 5 -5790 -1z"/>
</g>
</svg>
